﻿{
  "$schema": "https://schema.management.azure.com/schemas/2015-01-01/deploymentTemplate.json#",
  "contentVersion": "1.0.0.0",
  "parameters": {
    "virtualMachines_name": {
      "type": "string",
      "minLength": 1,
      "metadata": {
        "description": "Virtual Machine to Update."
      }
    },
    "CustExtStorageAcctName": {
      "type": "string",
      "minLength": 1,
      "metadata": {
        "description": "Storage Account for the VM and Custom Script"
      }
    },
    "scriptName": {
      "type": "string",
      "minLength": 1,
      "metadata": {
        "description": "Custom Script Name"
      }
    },
    "scriptnameUri": {
      "type": "string",
      "minLength": 1,
      "metadata": {
        "description": "Linux Custom Script Uri"
      }
    },
    "adminUsername": {
      "type": "string",
      "minLength": 1,
      "defaultValue": "superuser",
      "metadata": {
        "description": "Virtual Machine administrator name"
      }
    }
  },
  "variables": {
    "dnsNameForPublicIP": "[concat(parameters('virtualMachines_name'), '-dns')]",
    "publicIPAddresses_ip_name": "[concat(parameters('virtualMachines_name'), '-pip')]",
    "ExecutionCommand": "[concat('bash ', parameters('scriptName'))]"
  },
  "resources": [
    {
      "comments": "#### Linux Custom Script Extension",
      "name": "[concat(parameters('virtualMachines_name'), '/customscripextension')]",
      "type": "Microsoft.Compute/virtualMachines/extensions",
      "location": "[resourceGroup().location]",
      "apiVersion": "2017-03-30",
      "tags": {
        "displayName": "customscripextension"
      },
      "properties": {
        "publisher": "Microsoft.OSTCExtensions",
        "type": "CustomScriptForLinux",
        "typeHandlerVersion": "1.4",
        "autoUpgradeMinorVersion": true,
        "settings": {
          "fileUris": [
            "[parameters('scriptnameUri')]"
          ]
        },
        "protectedSettings": {
          "commandToExecute": "[variables('ExecutionCommand')]"
        }
      },
      "dependsOn": [
      ]
    }
  ],
  "outputs": {
    "VmFqdn": {
      "type": "string",
      "value": "[reference(resourceId('Microsoft.Network/publicIPAddresses',variables('publicIPAddresses_ip_name')),'2017-06-01').dnsSettings.fqdn]"
    },
    "ConnectionCommandIP": {
      "type": "string",
      "value": "[concat('ssh ', parameters('adminUsername'), '@', reference(resourceId('Microsoft.Network/publicIPAddresses',variables('publicIPAddresses_ip_name')),'2017-06-01').ipAddress)]"
    }
  }
}