{
  "$schema": "http://schema.management.azure.com/schemas/2015-01-01/deploymentTemplate.json#",
  "contentVersion": "1.0.0.0",
  "parameters": {
    "StorageAccount": {
      "type": "string",
      "defaultValue": "arrStorageAccount",
      "minLength": 1,
      "metadata": {
        "description": "Storage Account - part of the URL where to retrieve the template."
      }
    },
    "TemplateContainer": {
      "type": "string",
      "defaultValue": "templates",
      "minLength": 1,
      "metadata": {
        "description": "Template Container - part of the URL where to retrieve the template."
      }
    },
    "TemplateName": {
      "type": "string",
      "defaultValue": "template.json",
      "minLength": 1,
      "metadata": {
        "description": "Template Name - part of the URL where to retrieve the template."
      }
    },
    "virtualMachines_name": {
      "type": "string",
      "minLength": 1,
      "defaultValue": "dbasftpsrv",
      "metadata": {
        "description": "Virtual Machine to create"
      }
    },
    "adminUsername": {
      "type": "string",
      "minLength": 1,
      "defaultValue": "superuser",
      "metadata": {
        "description": "Virtual Machine administrator name"
      }
    },
    "sshKey": {
      "type": "string",
      "minLength": 1,
      "defaultValue": "ssh-rsa AA",
      "metadata": {
        "description": "admin user SSH Key"
      }
    },
    "securityRules_default_allow_ssh_name": {
      "type": "string",
      "minLength": 1,
      "defaultValue": "default-allow-ssh",
      "metadata": {
        "description": "NSG security rule"
      }
    }
  },
  "variables": {
    "TemplateUri": "[concat('https://', parameters('StorageAccount'), '.blob.core.windows.net/', parameters('TemplateContainer'), '/')]",
    "linuxVmTemplateName": "[concat(variables('TemplateUri'), parameters('TemplateName'))]",
    "extTemplateName": "emptyTemplate.json",
    "emptyTemplateUri": "[concat(variables('TemplateUri'), variables('extTemplateName'))]"
  },
  "resources": [
    {
      "name": "deployLinuxVm",
      "type": "Microsoft.Resources/deployments",
      "apiVersion": "2015-01-01",
      "dependsOn": [],
      "properties": {
        "mode": "Incremental",
        "templateLink": {
          "uri": "[variables('linuxVmTemplateName')]",
          "contentVersion": "1.0.0.0"
        },
        "parameters": {
          "virtualMachines_name": { "value": "[parameters('virtualMachines_name')]" },
          "adminUsername": { "value": "[parameters('adminUsername')]" },
          "sshKey": { "value": "[parameters('sshKey')]" },
          "securityRules_default_allow_ssh_name": { "value": "[parameters('securityRules_default_allow_ssh_name')]" }
        }
      }
    },
    {
      "comments": "###### Empty Extension",
      "name": "emptyDeployment",
      "type": "Microsoft.Resources/deployments",
      "apiVersion": "2015-01-01",
      "dependsOn": [ "[concat('Microsoft.Resources/deployments/', 'deployLinuxVm')]" ],
      "properties": {
        "mode": "Incremental",
        "templateLink": {
          "uri": "[variables('EmptyTemplateUri')]",
          "contentVersion": "1.0.0.0"
        },
        "parameters": {
          "virtualMachines_name": { "value": "[parameters('virtualMachines_name')]" },
          "adminUsername": { "value": "[parameters('adminUsername')]" }
        }
      }
    }
  ],
  "outputs": {
    "VmFqdn": {
      "type": "string",
      "value": "[reference('emptyDeployment').outputs.VmFqdn.value]"
    },
    "ConnectionCmd": {
      "type": "string",
      "value": "[reference('emptyDeployment').outputs.ConnectionCommandIP.value]"
    }
  }
}
