{
  "name": "string",
  "type": "Microsoft.Network/networkInterfaces",
  "apiVersion": "2017-03-01",
  "location": "string",
  "tags": {},
  "properties": {
    "virtualMachine": {
      "id": "string"
    },
    "networkSecurityGroup": {
      "id": "string",
      "location": "string",
      "tags": {},
      "properties": {
        "securityRules": [
          {
            "id": "string",
            "properties": {
              "description": "string",
              "protocol": "string",
              "sourcePortRange": "string",
              "destinationPortRange": "string",
              "sourceAddressPrefix": "string",
              "destinationAddressPrefix": "string",
              "access": "string",
              "priority": "integer",
              "direction": "string"
            },
            "name": "string"
          }
        ],
        "defaultSecurityRules": [
          {
            "id": "string",
            "properties": {
              "description": "string",
              "protocol": "string",
              "sourcePortRange": "string",
              "destinationPortRange": "string",
              "sourceAddressPrefix": "string",
              "destinationAddressPrefix": "string",
              "access": "string",
              "priority": "integer",
              "direction": "string"
            },
            "name": "string"
          }
        ]
      }
    },
    "ipConfigurations": [
      {
        "id": "string",
        "properties": {
          "applicationGatewayBackendAddressPools": [
            {
              "id": "string",
              "properties": {
                "backendIPConfigurations": [
                  "NetworkInterfaceIPConfiguration"
                ],
                "backendAddresses": [
                  {
                    "fqdn": "string",
                    "ipAddress": "string"
                  }
                ]
              },
              "name": "string"
            }
          ],
          "loadBalancerBackendAddressPools": [
            {
              "id": "string",
              "name": "string"
            }
          ],
          "loadBalancerInboundNatRules": [
            {
              "id": "string",
              "properties": {
                "frontendIPConfiguration": {
                  "id": "string"
                },
                "protocol": "string",
                "frontendPort": "integer",
                "backendPort": "integer",
                "idleTimeoutInMinutes": "integer",
                "enableFloatingIP": boolean
              },
              "name": "string"
            }
          ],
          "privateIPAddress": "string",
          "privateIPAllocationMethod": "string",
          "privateIPAddressVersion": "string",
          "subnet": {
            "id": "string",
            "properties": {
              "addressPrefix": "string",
              "networkSecurityGroup": {
                "id": "string",
                "location": "string",
                "tags": {},
                "properties": {
                  "securityRules": [
                    {
                      "id": "string",
                      "properties": {
                        "description": "string",
                        "protocol": "string",
                        "sourcePortRange": "string",
                        "destinationPortRange": "string",
                        "sourceAddressPrefix": "string",
                        "destinationAddressPrefix": "string",
                        "access": "string",
                        "priority": "integer",
                        "direction": "string"
                      },
                      "name": "string"
                    }
                  ],
                  "defaultSecurityRules": [
                    {
                      "id": "string",
                      "properties": {
                        "description": "string",
                        "protocol": "string",
                        "sourcePortRange": "string",
                        "destinationPortRange": "string",
                        "sourceAddressPrefix": "string",
                        "destinationAddressPrefix": "string",
                        "access": "string",
                        "priority": "integer",
                        "direction": "string"
                      },
                      "name": "string"
                    }
                  ]
                }
              },
              "routeTable": {
                "id": "string",
                "location": "string",
                "tags": {},
                "properties": {
                  "routes": [
                    {
                      "id": "string",
                      "properties": {
                        "addressPrefix": "string",
                        "nextHopType": "string",
                        "nextHopIpAddress": "string"
                      },
                      "name": "string"
                    }
                  ]
                }
              },
              "resourceNavigationLinks": [
                {
                  "id": "string",
                  "properties": {
                    "linkedResourceType": "string",
                    "link": "string"
                  },
                  "name": "string"
                }
              ]
            },
            "name": "string"
          },
          "primary": boolean,
          "publicIPAddress": {
            "id": "string",
            "location": "string",
            "tags": {},
            "properties": {
              "publicIPAllocationMethod": "string",
              "publicIPAddressVersion": "string",
              "dnsSettings": {
                "domainNameLabel": "string",
                "fqdn": "string",
                "reverseFqdn": "string"
              },
              "ipAddress": "string",
              "idleTimeoutInMinutes": "integer"
            }
          }
        },
        "name": "string"
      }
    ],
    "dnsSettings": {
      "dnsServers": [
        "string"
      ],
      "appliedDnsServers": [
        "string"
      ],
      "internalDnsNameLabel": "string",
      "internalFqdn": "string",
      "internalDomainNameSuffix": "string"
    },
    "macAddress": "string",
    "primary": boolean,
    "enableAcceleratedNetworking": boolean,
    "enableIPForwarding": boolean
  }
}